{
    "parent": "minecraft:recipes/root",
    "rewards": {
        "recipes": [
            "sifter:pyrite_block"
        ]
    },
    "criteria": {
        "has_pyrite": {
            "trigger": "minecraft:inventory_changed",
            "conditions": {
                "items": [
                    {
                        "item": "sifter:pyrite"
                    }
                ]
            }
        },
        "has_block": {
            "trigger": "minecraft:inventory_changed",
            "conditions": {
                "items": [
                    {
                        "item": "sifter:pyrite_block"
                    }
                ]
            }
        },
        "has_the_recipe": {
            "trigger": "minecraft:recipe_unlocked",
            "conditions": {
                "recipe": "minecraft:bone_meal"
            }
        }
    },
    "requirements": [
        [
            "has_the_recipe",
            "has_pyrite",
            "has_block"
        ]
    ]
}